EDA SIP
…
HoursActual
0
1
13.18
68.72
0.01
1
3
8.5
2490.16

Temos 20 projetos, com 12299 estimativas_raw. No h apenas uma estimativa por tarefa, j que h apenas 10266 valores distintos de TaskNumber.

## # A tibble: 1,384 x 2
## # Groups:   TaskNumber [1,384]
##    TaskNumber     n
##    <chr>      <int>
##  1 10605          8
##  2 6889           8
##  3 10089          7
##  4 10974          7
##  5 11056          7
##  6 11270          7
##  7 13124          7
##  8 13190          7
##  9 13253          7
## 10 3812           7
## # ... with 1,374 more rows
…
